…
# EDA

``` r
describe(df)
```

    ## # A tibble: 25 x 26
    ##    variable          n    na   mean     sd se_mean   IQR skewness kurtosis   p00
    ##    <chr>         <int> <int>  <dbl>  <dbl>   <dbl> <dbl>    <dbl>    <dbl> <dbl>
    ##  1 ID             1885     0 945.   545.   12.6      943 -0.00257  -1.20       1
    ##  2 neuroticism    1885     0  35.9    9.14  0.210     13  0.116    -0.548     12
    ##  3 extraversion   1885     0  39.6    6.77  0.156      9 -0.279     0.0487    16
    ##  4 openness       1885     0  45.8    6.58  0.152     10 -0.300    -0.273     24
    ##  5 agreeableness  1885     0  42.9    6.44  0.148      9 -0.270     0.135     12
    ##  6 conscientiou~  1885     0  41.4    6.97  0.160      9 -0.389    -0.167     17
    ##  7 alcohol        1885     0   5.64   1.33  0.0307     2 -1.32      1.77       1
    ##  8 amphet         1885     0   2.34   1.78  0.0411     2  1.25      0.545      1
    ##  9 amyl           1885     0   1.61   1.06  0.0245     1  1.86      3.23       1
    ## 10 benzos         1885     0   2.47   1.87  0.0430     3  1.00     -0.194      1
    ## # ... with 15 more rows, and 16 more variables: p01 <dbl>, p05 <dbl>,
    ## #   p10 <dbl>, p20 <dbl>, p25 <dbl>, p30 <dbl>, p40 <dbl>, p50 <dbl>,
    ## #   p60 <dbl>, p70 <dbl>, p75 <dbl>, p80 <dbl>, p90 <dbl>, p95 <dbl>,
    ## #   p99 <dbl>, p100 <dbl>

``` r
normality(df)
```

    ## # A tibble: 25 x 4
    ##    vars              statistic  p_value sample
    ##    <chr>                 <dbl>    <dbl>  <dbl>
    ##  1 ID                    0.955 1.10e-23   1885
    ##  2 neuroticism           0.992 2.10e- 8   1885
    ##  3 extraversion          0.993 6.74e- 8   1885
    ##  4 openness              0.989 6.72e-11   1885
    ##  5 agreeableness         0.993 3.87e- 8   1885
    ##  6 conscientiousness     0.986 1.74e-12   1885
    ##  7 alcohol               0.829 6.51e-41   1885
    ##  8 amphet                0.758 2.87e-46   1885
    ##  9 amyl                  0.631 3.80e-53   1885
    ## 10 benzos                0.771 2.36e-45   1885
    ## # ... with 15 more rows
…
